INDEX VERSION 1.129+/home/lbonaldo/src/MOKE/.metadata/.plugins/org.eclipse.jdt.core
786433993.index
2428139840.index
3849931632.index
1971809594.index
2349824820.index
4227379048.index
1737197620.index
561070362.index
990547839.index
1862613817.index
2120590315.index
2227367266.index
2397199357.index
2425867628.index
2222429369.index
1209043300.index
3410058659.index
3643459908.index
661791794.index
3249716687.index
84234041.index
2542808399.index
3853181610.index
3026877582.index
180837028.index
793758835.index
526353494.index
3424858154.index
1177756682.index
4064279987.index
863642625.index
1319135675.index
3469298724.index
3003499971.index
3601465320.index
2143139480.index
2680216244.index
1404958031.index
1080439615.index
375415525.index
312088397.index
1427662253.index
619455813.index
